Introducción al diseño y análisis estadístico de experimentos usando R
…
# Cargar los datos con readxl
library(readxl)
terneros <- read_excel("./data/pesada_terneros.xlsx")

3.4.1 Seleccionando variables

Una tareas básicas cuando se exploran datos es la selección de columnas de interés (variables). Esto se lleva a cabo con select().

Para seleccionar las columnas Procedencia, IDV y Peso:

# Sin asignar
select(terneros, Procedencia, IDV, Peso)

## # A tibble: 1,598 x 3
##    Procedencia IDV        Peso
##    <chr>       <chr>     <dbl>
##  1 La Rosita   NR047A202   204
##  2 La Rosita   GN685B267   186
##  3 La Rosita   AI101A751   182
##  4 La Rosita   TM603C877   186
##  5 La Rosita   TM420B797   186
##  6 La Rosita   LH837F500   208
##  7 La Rosita   NR047A217   170
##  8 La Rosita   LH837F508   188
##  9 La Rosita   GN685B256   172
## 10 La Rosita   QW110A058   172
## # ... with 1,588 more rows

# Creando un nuevo set de datos
mis_columnas <- select(terneros, Procedencia, IDV, Peso)

Por defecto, si no se asigna a un nuevo objeto, el resultado de la operación se imprime en la consola con la función print() la cual por defecto muestra las 10 primeras observaciones y la cantidad de columnas que entran en la pantalla. Aquellas columnas que no entran son indicadas al pie.

Si quiero ver más registros se puede usar el argumento n = de print()

print(mis_columnas, n = 15)

## # A tibble: 1,598 x 3
##    Procedencia IDV        Peso
##    <chr>       <chr>     <dbl>
##  1 La Rosita   NR047A202   204
##  2 La Rosita   GN685B267   186
##  3 La Rosita   AI101A751   182
##  4 La Rosita   TM603C877   186
##  5 La Rosita   TM420B797   186
##  6 La Rosita   LH837F500   208
##  7 La Rosita   NR047A217   170
##  8 La Rosita   LH837F508   188
##  9 La Rosita   GN685B256   172
## 10 La Rosita   QW110A058   172
## 11 La Rosita   LH837F497   188
## 12 La Rosita   TM420B803   180
## 13 La Rosita   LH837F514   198
## 14 La Rosita   II641B940   200
## 15 La Rosita   IY735C      242
## # ... with 1,583 more rows

Con n = "all" se imprimen todas (no se muestra por razones obvias)

El orden en que aparecen las variables en el resultado es el orden que se utilizó al seleccionarlas.

# El orden altera el producto
select(terneros, Procedencia, IDV, Peso)

## # A tibble: 1,598 x 3
##    Procedencia IDV        Peso
##    <chr>       <chr>     <dbl>
##  1 La Rosita   NR047A202   204
##  2 La Rosita   GN685B267   186
##  3 La Rosita   AI101A751   182
##  4 La Rosita   TM603C877   186
##  5 La Rosita   TM420B797   186
##  6 La Rosita   LH837F500   208
##  7 La Rosita   NR047A217   170
##  8 La Rosita   LH837F508   188
##  9 La Rosita   GN685B256   172
## 10 La Rosita   QW110A058   172
## # ... with 1,588 more rows

También se puede usar los comnados starts_with(), ends_with(), contains(), etc (ver ?select_helpers) para más opciones). Para elegir varias columnas que tienen un patron sin tener que tipear todos los nombres.

# Selecciona columnas que empiezan con P
select(terneros, starts_with("P"))

## # A tibble: 1,598 x 2
##    Procedencia  Peso
##    <chr>       <dbl>
##  1 La Rosita     204
##  2 La Rosita     186
##  3 La Rosita     182
##  4 La Rosita     186
##  5 La Rosita     186
##  6 La Rosita     208
##  7 La Rosita     170
##  8 La Rosita     188
##  9 La Rosita     172
## 10 La Rosita     172
## # ... with 1,588 more rows

Para omitir algunas columnas en la seleccion se puede usar el - antes del nombre.

# Selecciona columnas que empiezan con P
select(terneros, -IDV, -starts_with("P"))

## # A tibble: 1,598 x 1
##    Fecha              
##    <dttm>             
##  1 2017-04-06 00:00:00
##  2 2017-04-06 00:00:00
##  3 2017-04-06 00:00:00
##  4 2017-04-06 00:00:00
##  5 2017-04-06 00:00:00
##  6 2017-04-06 00:00:00
##  7 2017-04-06 00:00:00
##  8 2017-04-06 00:00:00
##  9 2017-04-06 00:00:00
## 10 2017-04-06 00:00:00
## # ... with 1,588 more rows

3.4.2 Seleccionando observaciones

Otra tarea muy frecuente es seleccionar casos o observaciones que cumplan con alguna condición. Esto se lleva a cabo con filter(). Se pueden usar los operadores booleanos ==, >, <, >=, <=, !=, %in%) para crear pruebas o condiciones lógicas.

Para seleccionar los terneros de Los Corralitos:

# Sin asignar
filter(terneros, Procedencia == 'Los Corralitos')

## # A tibble: 575 x 4
##    IDV       Procedencia    Fecha                Peso
##    <chr>     <chr>          <dttm>              <dbl>
##  1 PO150A167 Los Corralitos 2017-04-10 00:00:00   224
##  2 PO150A168 Los Corralitos 2017-04-10 00:00:00   234
##  3 PO150A169 Los Corralitos 2017-04-10 00:00:00   204
##  4 PO150A460 Los Corralitos 2017-04-10 00:00:00   196
##  5 PO150A673 Los Corralitos 2017-04-10 00:00:00   246
##  6 PO150A461 Los Corralitos 2017-04-10 00:00:00   196
##  7 PO150A462 Los Corralitos 2017-04-10 00:00:00   238
##  8 PO150A463 Los Corralitos 2017-04-10 00:00:00   210
##  9 PO150A433 Los Corralitos 2017-04-10 00:00:00   174
## 10 PO150A434 Los Corralitos 2017-04-10 00:00:00   222
## # ... with 565 more rows

# Creando un nuevo set de datos
corralitos <- filter(terneros, Procedencia == 'Los Corralitos')

La seleccion se puede hacer por más de una condicion. Por ejemplo, seleccionar los de Los Corralitos que pesen más de 200 kg:

filter(terneros, Procedencia == 'Los Corralitos', Peso > 200)

## # A tibble: 260 x 4
##    IDV       Procedencia    Fecha                Peso
##    <chr>     <chr>          <dttm>              <dbl>
##  1 PO150A167 Los Corralitos 2017-04-10 00:00:00   224
##  2 PO150A168 Los Corralitos 2017-04-10 00:00:00   234
##  3 PO150A169 Los Corralitos 2017-04-10 00:00:00   204
##  4 PO150A673 Los Corralitos 2017-04-10 00:00:00   246
##  5 PO150A462 Los Corralitos 2017-04-10 00:00:00   238
##  6 PO150A463 Los Corralitos 2017-04-10 00:00:00   210
##  7 PO150A434 Los Corralitos 2017-04-10 00:00:00   222
##  8 PO150A435 Los Corralitos 2017-04-10 00:00:00   208
##  9 PO150A675 Los Corralitos 2017-04-10 00:00:00   216
## 10 PO150A681 Los Corralitos 2017-04-10 00:00:00   226
## # ... with 250 more rows

filter() asume que cada condicion se debe cumplir en simultaneo para que la observación sea seleccionada. Esto equivale a utilizar el operador & (Y). En caso de querer seleccionar aquellos registros que cumple una u otra condicion se usa el operador | (O). Poniendo ! delante de la condicion se invierte la selección.

# Operador &
filter(terneros, Procedencia == 'Los Corralitos' & Peso > 200)

## # A tibble: 260 x 4
##    IDV       Procedencia    Fecha                Peso
##    <chr>     <chr>          <dttm>              <dbl>
##  1 PO150A167 Los Corralitos 2017-04-10 00:00:00   224
##  2 PO150A168 Los Corralitos 2017-04-10 00:00:00   234
##  3 PO150A169 Los Corralitos 2017-04-10 00:00:00   204
##  4 PO150A673 Los Corralitos 2017-04-10 00:00:00   246
##  5 PO150A462 Los Corralitos 2017-04-10 00:00:00   238
##  6 PO150A463 Los Corralitos 2017-04-10 00:00:00   210
##  7 PO150A434 Los Corralitos 2017-04-10 00:00:00   222
##  8 PO150A435 Los Corralitos 2017-04-10 00:00:00   208
##  9 PO150A675 Los Corralitos 2017-04-10 00:00:00   216
## 10 PO150A681 Los Corralitos 2017-04-10 00:00:00   226
## # ... with 250 more rows

# Operador |
filter(terneros, Procedencia == 'Los Corralitos' | Peso > 200)

## # A tibble: 779 x 4
##    IDV       Procedencia  Fecha                Peso
##    <chr>     <chr>        <dttm>              <dbl>
##  1 NR047A202 La Rosita    2017-04-06 00:00:00   204
##  2 LH837F500 La Rosita    2017-04-06 00:00:00   208
##  3 IY735C    La Rosita    2017-04-06 00:00:00   242
##  4 QW110A072 La Rosita    2017-04-06 00:00:00   218
##  5 LH837F526 La Rosita    2017-04-06 00:00:00   208
##  6 DS289A491 La Rosita    2017-04-06 00:00:00   204
##  7 TL698HK39 La Rosita    2017-04-06 00:00:00   218
##  8 LH837F538 La Rosita    2017-04-06 00:00:00   204
##  9 IW751A017 La Rosita    2017-04-06 00:00:00   222
## 10 NO133A004 Las Glicinas 2017-04-09 00:00:00   258
## # ... with 769 more rows

Con el operador %in% se puede especificar un rango de valores que deben cumplir. Por ejemplo terneros de Los Corralitos, Las Glicinas y Don Alberto

# Indicando cada nombre
filter(terneros, Procedencia == 'Los Corralitos', Procedencia == 'Las Glicinas', Procedencia == 'Don Alberto')

## # A tibble: 0 x 4
## # ... with 4 variables: IDV <chr>, Procedencia <chr>, Fecha <dttm>,
## #   Peso <dbl>

# Más resumido con %in%
filter(terneros, Procedencia %in% c('Los Corralitos', 'Las Glicinas', 'Don Alberto'))

## # A tibble: 1,138 x 4
##    IDV       Procedencia  Fecha                Peso
##    <chr>     <chr>        <dttm>              <dbl>
##  1 SZ208I507 Las Glicinas 2017-04-09 00:00:00   152
##  2 SZ208H993 Las Glicinas 2017-04-09 00:00:00   114
##  3 SZ208H849 Las Glicinas 2017-04-09 00:00:00   158
##  4 SZ208H777 Las Glicinas 2017-04-09 00:00:00   112
##  5 GT542A562 Las Glicinas 2017-04-09 00:00:00   114
##  6 OQ152A550 Las Glicinas 2017-04-09 00:00:00   182
##  7 NO133A057 Las Glicinas 2017-04-09 00:00:00   168
##  8 SZ208H888 Las Glicinas 2017-04-09 00:00:00   196
##  9 OQ152A566 Las Glicinas 2017-04-09 00:00:00   176
## 10 NO133A047 Las Glicinas 2017-04-09 00:00:00   180
## # ... with 1,128 more rows

3.4.3 Encadenando operaciones (operador %>%)

dplyr importa el operador %>% de otro paquete llamado magrittr. Este operador permite encadenar operaciones realizadas con los verbos. De este modo no hay que ir creando tablas intermedias o anidar funciones. El operador traduce como luego y se le de izquierda a derecha y se puede.

Ejemplo: Reportar los IDV y peso de los terneros con más de 250 kg. Esto implicaría seleccionar las columnas de interés y luego filtrar la tabla o vice versa.

# Creando tablas intermedias
terneros2 <- select(terneros, IDV, Peso)
terneros2

## # A tibble: 1,598 x 2
##    IDV        Peso
##    <chr>     <dbl>
##  1 NR047A202   204
##  2 GN685B267   186
##  3 AI101A751   182
##  4 TM603C877   186
##  5 TM420B797   186
##  6 LH837F500   208
##  7 NR047A217   170
##  8 LH837F508   188
##  9 GN685B256   172
## 10 QW110A058   172
## # ... with 1,588 more rows

terneros2 <- filter(terneros2, Peso > 250)
terneros2

## # A tibble: 75 x 2
##    IDV        Peso
##    <chr>     <dbl>
##  1 NO133A004   258
##  2 OQ152A456   258
##  3 NO133A006   256
##  4 OQ152A553   256
##  5 PO150A166   290
##  6 PO150A674   256
##  7 PO150A656   272
##  8 NO133A045   264
##  9 PO150A571   264
## 10 PO150A686   262
## # ... with 65 more rows

# Anidando
filter(select(terneros, IDV, Peso), Peso > 250)

## # A tibble: 75 x 2
##    IDV        Peso
##    <chr>     <dbl>
##  1 NO133A004   258
##  2 OQ152A456   258
##  3 NO133A006   256
##  4 OQ152A553   256
##  5 PO150A166   290
##  6 PO150A674   256
##  7 PO150A656   272
##  8 NO133A045   264
##  9 PO150A571   264
## 10 PO150A686   262
## # ... with 65 more rows

# Usando %>%
terneros %>%
  select(IDV, Peso) %>%
  filter(Peso >  250)

## # A tibble: 75 x 2
##    IDV        Peso
##    <chr>     <dbl>
##  1 NO133A004   258
##  2 OQ152A456   258
##  3 NO133A006   256
##  4 OQ152A553   256
##  5 PO150A166   290
##  6 PO150A674   256
##  7 PO150A656   272
##  8 NO133A045   264
##  9 PO150A571   264
## 10 PO150A686   262
## # ... with 65 more rows
…
La última opción se lee: _tomar la tabla terneros, luego seleccionar las columnas IDV y Peso, luego filtrar los terneros con pesos mayores a 250 kg.

El operador de encadenamiento es muy útil cuando se encadenan muchas operaciones.

3.4.4 Ordenar las filas

Para ordenar según algun criterio aplicado a las columnas se usa arrange(). Por ejemplo, continuar con lo anterior pero mostrar ordenadospor peso.

# Ordenar de menor a mayor
terneros %>%
  select(IDV, Peso) %>%
  filter(Peso >  250) %>%
  arrange(Peso)

## # A tibble: 75 x 2
##    IDV        Peso
##    <chr>     <dbl>
##  1 PO150A546   252
##  2 NS509H081   252
##  3 PO15A710    252
##  4 NO133A019   254
##  5 PO150A784   254
##  6 IA671B182   254
##  7 IA671B176   254
##  8 PO150A716   254
##  9 NO133A006   256
## 10 OQ152A553   256
## # ... with 65 more rows

Con decs(variable) se ordena de mayor a menor

# Ordenar de mayor a menor
terneros %>%
  select(IDV, Peso) %>%
  filter(Peso >  250) %>%
  arrange(desc(Peso))

## # A tibble: 75 x 2
##    IDV        Peso
##    <chr>     <dbl>
##  1 PO150A679   384
##  2 IA671B041   294
##  3 MM429A932   292
##  4 PO150A166   290
##  5 PO150A763   288
##  6 IA671B106   288
##  7 NS509G964   286
##  8 PO150A821   284
##  9 IA671B045   282
## 10 NO133A000   280
## # ... with 65 more rows

3.4.5 Crear o transformar columnas

Para crear nuevas columnas aplicando funciones a otras, o bien para transformar columnas se usa mutate(). Se pueden modificar más de una columna a la vez. Por ejemplo, suponiendo que interesa obtener el logaritmo natura de los pesos o elevar los pesos al cuadrado.

terneros %>% 
  mutate(log_peso = log(Peso), peso2 = Peso**2) %>%
  select(Peso, log_peso, peso2)                        # para que se vea mejor el resultado 

## # A tibble: 1,598 x 3
##     Peso log_peso peso2
##    <dbl>    <dbl> <dbl>
##  1   204     5.32 41616
##  2   186     5.23 34596
##  3   182     5.20 33124
##  4   186     5.23 34596
##  5   186     5.23 34596
##  6   208     5.34 43264
##  7   170     5.14 28900
##  8   188     5.24 35344
##  9   172     5.15 29584
## 10   172     5.15 29584
## # ... with 1,588 more rows
…
3.4.8 Muestrear

El verbo sample_n() and sample_frac() son útiles para tomar muestras aleatorias (con o sin reposición) de un conjunto de observaciones. También se puede hacer por subgrupo!

# Una muestra de 50 novillos
muestra50 <- terneros %>%
  sample_n(50)
muestra50

## # A tibble: 50 x 6
##    IDV       Procedencia    Fecha                Peso log_peso peso2
##    <chr>     <chr>          <dttm>              <dbl>    <dbl> <dbl>
##  1 SZ208H927 Las Glicinas   2017-04-09 00:00:00   132     4.88 17424
##  2 TM603C884 La Rosita      2017-04-06 00:00:00   140     4.94 19600
##  3 PO150A802 Los Corralitos 2017-04-11 00:00:00   216     5.38 46656
##  4 NO133A023 Las Glicinas   2017-04-10 00:00:00   222     5.40 49284
##  5 MM429A720 La Alameda     2017-04-18 00:00:00   200     5.30 40000
##  6 SZ208H987 Las Glicinas   2017-04-10 00:00:00   140     4.94 19600
##  7 GH738B351 Don Alberto    2017-04-20 00:00:00   154     5.04 23716
##  8 SZ208I530 Las Glicinas   2017-04-10 00:00:00   114     4.74 12996
##  9 PO150A837 Los Corralitos 2017-04-11 00:00:00   166     5.11 27556
## 10 GT542A546 Las Glicinas   2017-04-09 00:00:00   180     5.19 32400
## # ... with 40 more rows

# Una muestra de 10 novillos de cada procedencia
muestra_procedencia <- terneros %>%
  group_by(Procedencia) %>%
  sample_n(10)
muestra_procedencia

## # A tibble: 70 x 6
## # Groups:   Procedencia [7]
##    IDV       Procedencia Fecha                Peso log_peso peso2
##    <chr>     <chr>       <dttm>              <dbl>    <dbl> <dbl>
##  1 GH738B390 Don Alberto 2017-04-20 00:00:00   206     5.33 42436
##  2 GH738B354 Don Alberto 2017-04-20 00:00:00   150     5.01 22500
##  3 GH738B365 Don Alberto 2017-04-20 00:00:00   164     5.10 26896
##  4 GH738B344 Don Alberto 2017-04-20 00:00:00   160     5.08 25600
##  5 GH738B340 Don Alberto 2017-04-20 00:00:00   204     5.32 41616
##  6 GH738B336 Don Alberto 2017-04-20 00:00:00   170     5.14 28900
##  7 GH738B388 Don Alberto 2017-04-20 00:00:00   210     5.35 44100
##  8 GH738B348 Don Alberto 2017-04-20 00:00:00   212     5.36 44944
##  9 GH738B334 Don Alberto 2017-04-20 00:00:00   164     5.10 26896
## 10 GH738B349 Don Alberto 2017-04-20 00:00:00   204     5.32 41616
## # ... with 60 more rows
