Introducción al diseño y análisis estadístico de experimentos usando R
…
5.4.1 Tablas de frecuencias

Conocer la distribución de los valores de las variables en estudio es importante para examinar algunas características tales como la tendencia central, la dispersión, presencia de valores atípicos, etc.

Una forma de examinar al distribución es mediante tablas de frecuencias que consisten en el listado de los valores de la variable (individuales o agrupados en clases) y sus frecuencias o conteos correspondientes. Es útil para resumir variables categóricas, discretas o conjuntos de datos cuantitativos contínuos grandes \(n > 25\).

Las frecuencias representan el número de veces que un valor o clase está representado en la muestra o población. Para ejemplificar la construcción de tablas de frecuencias en R usaremos datos de pesaje de terneros de un establecimiento ganadero del norte de Santa Fe. Los datos encuentran en el archivo pesada_terneros.xlsx.

# Cargar los datos
library(readxl)
terneros <- read_excel("pesada_terneros.xlsx")
terneros

## # A tibble: 1,598 x 4
##    IDV       Procedencia Fecha                Peso
##    <chr>     <chr>       <dttm>              <dbl>
##  1 NR047A202 La Rosita   2017-04-06 00:00:00   204
##  2 GN685B267 La Rosita   2017-04-06 00:00:00   186
##  3 AI101A751 La Rosita   2017-04-06 00:00:00   182
##  4 TM603C877 La Rosita   2017-04-06 00:00:00   186
##  5 TM420B797 La Rosita   2017-04-06 00:00:00   186
##  6 LH837F500 La Rosita   2017-04-06 00:00:00   208
##  7 NR047A217 La Rosita   2017-04-06 00:00:00   170
##  8 LH837F508 La Rosita   2017-04-06 00:00:00   188
##  9 GN685B256 La Rosita   2017-04-06 00:00:00   172
## 10 QW110A058 La Rosita   2017-04-06 00:00:00   172
## # ... with 1,588 more rows
…
c <- 50
mc <- lim[1:7] + 0.5 * c
mc

## [1]  75 125 175 225 275 325 375

con los límites definidos se debe categorizar o discretizar la variable contínua, es decir, transformar el vector Peso en un vector contenga el intervalo al que pertenece cada valor de peso observado. Esto se hace con la función cut() indicando los límites de clase en breaks. El argumento include.lowest = T es para aseguramos que todos los datos sean incluidos en las clases y right = F para que los intervalos no sean cerrados a derecha, es decir, que sean semi-abiertos a derecha. Con la función mutate() de dplyr creamos una nueva columna en el set de datos con las clases que contiene.

# Dividir los datos en clases
library(dplyr)
terneros <- mutate(terneros, clases = cut(Peso, breaks = lim, include.lowest = T, right = F))
terneros

## # A tibble: 1,598 x 5
##    IDV       Procedencia Fecha                Peso clases   
##    <chr>     <chr>       <dttm>              <dbl> <fct>    
##  1 NR047A202 La Rosita   2017-04-06 00:00:00   204 [200,250)
##  2 GN685B267 La Rosita   2017-04-06 00:00:00   186 [150,200)
##  3 AI101A751 La Rosita   2017-04-06 00:00:00   182 [150,200)
##  4 TM603C877 La Rosita   2017-04-06 00:00:00   186 [150,200)
##  5 TM420B797 La Rosita   2017-04-06 00:00:00   186 [150,200)
##  6 LH837F500 La Rosita   2017-04-06 00:00:00   208 [200,250)
##  7 NR047A217 La Rosita   2017-04-06 00:00:00   170 [150,200)
##  8 LH837F508 La Rosita   2017-04-06 00:00:00   188 [150,200)
##  9 GN685B256 La Rosita   2017-04-06 00:00:00   172 [150,200)
## 10 QW110A058 La Rosita   2017-04-06 00:00:00   172 [150,200)
## # ... with 1,588 more rows
…
